myhdl/simulation_files/tb_dff.vcd
$date
    Fri Apr 13 11:23:15 2012
$end
$version
    MyHDL 0.7
$end
$timescale
    1ns
$end

$scope module tb_dff $end
$var reg 1 ! q $end
$var reg 1 " d $end
$var reg 1 # clk $end
$scope module dff_inst $end
$var reg 1 ! q $end
$var reg 1 " d $end
$var reg 1 # clk $end
$upscope $end
$upscope $end

$enddefinitions $end
$dumpvars
0!
0"
0#
$end
#10
1#
#20
0#
#30
1#
#40
0#
1"
#50
1#
1!
#60
0#
0"
#70
1#
0!
#80
0#
1"
#90
1#
1!
#100
0#
0"
#110
1#
0!
#120
0#
1"
#130
1#
1!
#140
0#
0"
#150
1#
0!
#160
0#
1"
#170
1#
1!
#180
0#
#190
1#
#200
0#
0"
#210
1#
0!
#220
0#
1"
#230
1#
1!
#240
0#
#250
1#
#260
0#
#270
1#
#280
0#
#290
1#
#300
0#
0"
#310
1#
0!
#320
0#
1"
#330
1#
1!
#340
0#
#350
1#
#360
0#
0"
#370
1#
0!
#380
0#
#390
1#
#400
0#
#410
1#
#420
0#
1"
#430
1#
1!
#440
0#
#450
1#
#460
0#
0"
#470
1#
0!
#480
0#
1"
#490
1#
1!
#500
0#
0"
#510
1#
0!
#520
0#
1"
#530
1#
1!
#540
0#
0"
#550
1#
0!
#560
0#
1"
#570
1#
1!
#580
0#
#590
1#
#600
0#
#610
1#
#620
0#
#630
1#
#640
0#
#650
1#
#660
0#
0"
#670
1#
0!
#680
0#
#690
1#
#700
0#
#710
1#
#720
0#
#730
1#
#740
0#
#750
1#
#760
0#
#770
1#
#780
0#
1"
#790
1#
1!
#800
0#
#810
1#
#820
0#
0"
#830
1#
0!
#840
0#
1"
#850
1#
1!
#860
0#
0"
#870
1#
0!
#880
0#
#890
1#
#900
0#
1"
#910
1#
1!
#920
0#
0"
#930
1#
0!
#940
0#
#950
1#
#960
0#
#970
1#
#980
0#
1"
#990
1#
1!
#1000
0#
0"
#1010
1#
0!
#1020
0#
1"
#1030
1#
1!
#1040
0#
#1050
1#
#1060
0#
0"
#1070
1#
0!
#1080
0#
1"
#1090
1#
1!
#1100
0#
0"
#1110
1#
0!
#1120
0#
1"
#1130
1#
1!
#1140
0#
0"
#1150
1#
0!
#1160
0#
#1170
1#
#1180
0#
1"
#1190
1#
1!
#1200
0#
0"
#1210
1#
0!
#1220
0#
#1230
1#
#1240
0#
1"
#1250
1#
1!
#1260
0#
0"
#1270
1#
0!
#1280
0#
#1290
1#
#1300
0#
1"
#1310
1#
1!
#1320
0#
0"
#1330
1#
0!
#1340
0#
#1350
1#
#1360
0#
1"
#1370
1#
1!
#1380
0#
0"
#1390
1#
0!
#1400
0#
#1410
1#
#1420
0#
1"
#1430
1#
1!
#1440
0#
#1450
1#
#1460
0#
0"
#1470
1#
0!
#1480
0#
1"
#1490
1#
1!
#1500
0#
#1510
1#
#1520
0#
0"
#1530
1#
0!
#1540
0#
#1550
1#
#1560
0#
#1570
1#
#1580
0#
#1590
1#
#1600
0#
1"
#1610
1#
1!
#1620
0#
0"
#1630
1#
0!
#1640
0#
#1650
1#
#1660
0#
1"
#1670
1#
1!
#1680
0#
0"
#1690
1#
0!
#1700
0#
1"
#1710
1#
1!
#1720
0#
0"
#1730
1#
0!
#1740
0#
#1750
1#
#1760
0#
#1770
1#
#1780
0#
1"
#1790
1#
1!
#1800
0#
0"
#1810
1#
0!
#1820
0#
#1830
1#
#1840
0#
#1850
1#
#1860
0#
#1870
1#
#1880
0#
#1890
1#
#1900
0#
#1910
1#
#1920
0#
#1930
1#
#1940
0#
#1950
1#
#1960
0#
1"
#1970
1#
1!
