myhdl/dff/ghdl/t_dff.vcd
$date
  Wed Apr 18 16:27:39 2012
$end
$version
  GHDL v0
$end
$timescale
  1 fs
$end
$var reg 1 ! d $end
$var reg 1 " clk $end
$var reg 1 # q $end
$scope module uut $end
$var reg 1 $ d $end
$var reg 1 % clk $end
$var reg 1 & q $end
$upscope $end
$enddefinitions $end
#0
0!
0"
U#
0$
0%
U&
#10000000
1"
0#
1%
0&
#15000000
1!
1$
#20000000
0"
0%
#30000000
1"
1#
1%
1&
#40000000
0"
0%
#45000000
0!
0$
#50000000
1"
0#
1%
0&
#60000000
0"
0%
#70000000
1"
1%
#75000000
1!
1$
#80000000
0"
0%
#90000000
1"
1#
1%
1&
#100000000
0"
0%
#105000000
0!
0$
#110000000
1"
0#
1%
0&
